…
}

x %>% 
  mutate(mask = if_else(inst == "mask", input, NA_character_)) %>%
  fill(mask) %>% 
  filter(inst == "mem") %>% 
  select(-inst) %>% 
  mutate(mask = map(mask, ~as.integer(str_split(.x, "")[[1]]))) %>%
  mutate(newmem = map2(mask, mem, float))
```

    ## # A tibble: 445 x 4
    ##      mem input     mask       newmem             
    ##    <int> <chr>     <list>     <list>             
    ##  1 41579 225076    <int [36]> <df[,36] [16 × 36]>
    ##  2 14806 26208185  <int [36]> <df[,36] [16 × 36]>
    ##  3 47659 176531392 <int [36]> <df[,36] [16 × 36]>
    ##  4 27723 186971157 <int [36]> <df[,36] [16 × 36]>
    ##  5 35129 3483636   <int [36]> <df[,36] [16 × 36]>
    ##  6 27142 4246      <int [36]> <df[,36] [16 × 36]>
    ##  7 16685 392461    <int [36]> <df[,36] [64 × 36]>
    ##  8 65343 13662482  <int [36]> <df[,36] [64 × 36]>
    ##  9 53292 736       <int [36]> <df[,36] [64 × 36]>
    ## 10  6830 382342975 <int [36]> <df[,36] [64 × 36]>
    ## # … with 435 more rows
