🎄🎄🎄 day 05 🎄🎄🎄
================

``` r
library(tidyverse)
library(here)

seats <- read_fwf(here("day_05", "day_05.txt"),
                  col_positions = fwf_cols(row = 7, col = 3))

seats
```

    ## # A tibble: 817 x 2
    ##    row     col  
    ##    <chr>   <chr>
    ##  1 FBFFFFB RLL  
    ##  2 FFBFFFF RLR  
    ##  3 BFBBFFB RLL  
    ##  4 FBBBBFF LLR  
    ##  5 BFFFBFF LRL  
    ##  6 FBBFBFF LRR  
    ##  7 FBBFBFB LLL  
    ##  8 BFFBFFF LRL  
    ##  9 FBFFBBB LRR  
    ## 10 BFFFFFB RRR  
    ## # … with 807 more rows
…
